\relax 
\providecommand\hyper@newdestlabel[2]{}
\providecommand\HyperFirstAtBeginDocument{\AtBeginDocument}
\HyperFirstAtBeginDocument{\ifx\hyper@anchor\@undefined
\global\let\oldcontentsline\contentsline
\gdef\contentsline#1#2#3#4{\oldcontentsline{#1}{#2}{#3}}
\global\let\oldnewlabel\newlabel
\gdef\newlabel#1#2{\newlabelxx{#1}#2}
\gdef\newlabelxx#1#2#3#4#5#6{\oldnewlabel{#1}{{#2}{#3}}}
\AtEndDocument{\ifx\hyper@anchor\@undefined
\let\contentsline\oldcontentsline
\let\newlabel\oldnewlabel
\fi}
\fi}
\global\let\hyper@last\relax 
\gdef\HyperFirstAtBeginDocument#1{#1}
\providecommand\HyField@AuxAddToFields[1]{}
\providecommand\HyField@AuxAddToCoFields[2]{}
\providecommand \oddpage@label [2]{}
\@writefile{toc}{\contentsline {section}{\numberline {1}Introduction}{2}{section.1}\protected@file@percent }
\@writefile{toc}{\contentsline {subsection}{\numberline {1.1}Purpose of the Web Application}{2}{subsection.1.1}\protected@file@percent }
\@writefile{toc}{\contentsline {subsection}{\numberline {1.2}Requirements}{3}{subsection.1.2}\protected@file@percent }
\@writefile{toc}{\contentsline {subsection}{\numberline {1.3}Features Implemented}{3}{subsection.1.3}\protected@file@percent }
\@writefile{toc}{\contentsline {subsubsection}{\numberline {1.3.1}Advanced Features}{4}{subsubsection.1.3.1}\protected@file@percent }
\@writefile{toc}{\contentsline {section}{\numberline {2}Accessing the Web Application}{5}{section.2}\protected@file@percent }
\@writefile{toc}{\contentsline {subsection}{\numberline {2.1}Running the Web Application Locally}{5}{subsection.2.1}\protected@file@percent }
\@writefile{toc}{\contentsline {section}{\numberline {3}Analysis of the Web Application Architecture}{6}{section.3}\protected@file@percent }
\@writefile{toc}{\contentsline {subsection}{\numberline {3.1}Presentational}{6}{subsection.3.1}\protected@file@percent }
\@writefile{toc}{\contentsline {subsubsection}{\numberline {3.1.1}Forms}{8}{subsubsection.3.1.1}\protected@file@percent }
\@writefile{toc}{\contentsline {subsection}{\numberline {3.2}Business Logic}{9}{subsection.3.2}\protected@file@percent }
\@writefile{toc}{\contentsline {subsubsection}{\numberline {3.2.1}Views and Web Forms}{9}{subsubsection.3.2.1}\protected@file@percent }
\@writefile{toc}{\contentsline {subsubsection}{\numberline {3.2.2}Sessions \& Authentication}{13}{subsubsection.3.2.2}\protected@file@percent }
\@writefile{toc}{\contentsline {subsection}{\numberline {3.3}Data Access}{14}{subsection.3.3}\protected@file@percent }
\@writefile{toc}{\contentsline {section}{\numberline {4}Potential Security Risks}{16}{section.4}\protected@file@percent }
\@writefile{toc}{\contentsline {subsection}{\numberline {4.1}CSRF}{17}{subsection.4.1}\protected@file@percent }
\@writefile{toc}{\contentsline {subsection}{\numberline {4.2}XSS}{17}{subsection.4.2}\protected@file@percent }
\@writefile{toc}{\contentsline {subsection}{\numberline {4.3}SQL Injection}{17}{subsection.4.3}\protected@file@percent }
\@writefile{toc}{\contentsline {section}{\numberline {5}Evaluation}{18}{section.5}\protected@file@percent }
\@writefile{toc}{\contentsline {subsection}{\numberline {5.1}Testing}{18}{subsection.5.1}\protected@file@percent }
\@writefile{toc}{\contentsline {subsubsection}{\numberline {5.1.1}Test Plan}{18}{subsubsection.5.1.1}\protected@file@percent }
\gdef \LT@i {\LT@entry 
    {1}{98.15825pt}\LT@entry 
    {1}{154.66377pt}\LT@entry 
    {1}{154.66377pt}\LT@entry 
    {1}{154.66377pt}}
\@writefile{toc}{\contentsline {subsubsection}{\numberline {5.1.2}Test Results}{20}{subsubsection.5.1.2}\protected@file@percent }
\@writefile{toc}{\contentsline {subsection}{\numberline {5.2}Meeting the specification}{20}{subsection.5.2}\protected@file@percent }
\@writefile{toc}{\contentsline {subsubsection}{\numberline {5.2.1}database design}{21}{subsubsection.5.2.1}\protected@file@percent }
\@writefile{toc}{\contentsline {subsubsection}{\numberline {5.2.2}Sessions and authentication}{22}{subsubsection.5.2.2}\protected@file@percent }
\@writefile{toc}{\contentsline {subsubsection}{\numberline {5.2.3}Styling}{22}{subsubsection.5.2.3}\protected@file@percent }
\@writefile{toc}{\contentsline {subsubsection}{\numberline {5.2.4}Unit Testing}{23}{subsubsection.5.2.4}\protected@file@percent }
\@writefile{toc}{\contentsline {subsubsection}{\numberline {5.2.5}Logging}{23}{subsubsection.5.2.5}\protected@file@percent }
\@writefile{toc}{\contentsline {subsubsection}{\numberline {5.2.6}Advanced Features}{24}{subsubsection.5.2.6}\protected@file@percent }
\@writefile{toc}{\contentsline {subsubsection}{\numberline {5.2.7}Deployment}{24}{subsubsection.5.2.7}\protected@file@percent }
\@writefile{toc}{\contentsline {subsection}{\numberline {5.3}User Experience}{24}{subsection.5.3}\protected@file@percent }
\@writefile{toc}{\contentsline {subsection}{\numberline {5.4}Reflection}{25}{subsection.5.4}\protected@file@percent }
\@writefile{toc}{\contentsline {section}{\numberline {6}References}{26}{section.6}\protected@file@percent }
